<?xml  version="1.0" encoding="UTF-8"?>
<!DOCTYPE svg PUBLIC "-//W3C//DTD SVG 1.0//EN" "http://www.w3.org/TR/2001/REC-SVG-20010904/DTD/svg10.dtd" >
<svg xmlns="http://www.w3.org/2000/svg" >
<metadata>
<version>1.0</version>
<id><![CDATA[Trebuchet W01 Regular]]></id>
<vendor>Monotype Imaging Inc.</vendor>
<credits>
<name>Fonts.com WebFonts</name>
<URL>http://webfonts.fonts.com</URL>
<role>Home of the Web fonts</role>
</credits>
<license>
<URL>http://webfonts.fonts.com/Legal</URL>
</license>
<copyright><![CDATA[© 2006 Microsoft Corporation. All Rights Reserved.]]></copyright>
<trademark></trademark>
<licensee>
<name></name>
</licensee>
</metadata>
<defs >
<font horiz-adv-x="1068" id="6dbee8aa-ec24-476b-ac7c-587bc9a89a25">
<font-face font-family="Trebuchet W01 Regular" panose-1="2 11 6 3 2 2 2 2 2 4" ascent="1569" descent="-479" units-per-em="2048" alphabetic="0">
</font-face>
<missing-glyph horiz-adv-x="0" />

<glyph unicode="&#xA;" />
<glyph unicode="&#xD;" horiz-adv-x="0" />
<glyph unicode=" " horiz-adv-x="617" />
<glyph unicode="!" horiz-adv-x="752" d="M413 382H342Q265 885 265 1081V1491H491V1082Q491 891 413 382ZM384 281Q446 281 490 237T534 131Q534 69 490 25T384 -20Q322 -20 278 24T234 131Q234 193 278 237T384 281Z"  />
<glyph unicode="&quot;" horiz-adv-x="665" d="M229 1086H96L72 1467H256L229 1086ZM559 1086H426L402 1467H586L559 1086Z"  />
<glyph unicode="#" horiz-adv-x="1074" d="M879 947L780 554H941V426H747L623 -20H496L620 426H323L199 -20H69L192 426H37V554H225L324 947H152V1075H357L459 1487H590L487 1075H784L887 1487H1014L911 1075H1086V947H879ZM455 947L356 554H653L752 947H455Z"  />
<glyph unicode="$" horiz-adv-x="1074" d="M458 -25Q389 -21 284 10T140 67L212 251Q264 213 349 184T502 155Q619 155 690 219T761 382Q761 444 741 492T685 569T523 658L405 713Q255 783 196 879T136 1110Q136 1249 223 1352T458 1482V1642H597V1489Q812 1480 888 1411L829 1237Q789 1266 707 1293T555 1320Q453 1320 395 1262T336 1113Q336 1057 357 1011T417 933T569 847L661 804Q817 731 889 626T961 355Q961 219 865 117T597 -15V-246H458V-25Z"  />
<glyph unicode="%" horiz-adv-x="1229" d="M218 -20H91L974 1491H1100L218 -20ZM61 1162Q61 1309 142 1400T348 1491Q471 1491 544 1401T618 1143Q618 987 540 896T339 804Q61 804 61 1162ZM187 1152Q187 1035 226 971T330 906Q492 906 492 1151Q492 1389 345 1389Q272 1389 230 1325T187 1152ZM601 338Q601 485 682 576T888 667Q1011 667 1084 577T1158 319Q1158 163 1080 72T879 -20Q601 -20 601 338ZM727 328Q727 211 766 147T870 82Q1032 82 1032 327Q1032 565 885 565Q812 565 770 501T727 328Z"  />
<glyph unicode="&amp;" horiz-adv-x="1446" d="M929 51Q784 -20 579 -20Q370 -20 256 103T142 453Q142 569 176 654T303 830Q162 970 162 1121Q162 1274 277 1382T587 1491Q793 1491 905 1400L822 1246Q708 1341 618 1341Q352 1341 352 1101Q352 971 468 881H840V1064L1030 1137V878H1279V718H1030V388Q1030 250 1067 200T1195 150Q1249 150 1322 187L1349 10Q1244 -20 1109 -20Q1016 -20 929 51ZM840 314V718H437Q342 596 342 462Q342 150 647 150Q783 150 851 199Q840 245 840 314Z"  />
<glyph unicode="&apos;" horiz-adv-x="327" d="M229 1086H96L72 1467H256L229 1086Z"  />
<glyph unicode="(" horiz-adv-x="752" d="M618 1475V1392Q420 1106 420 557Q420 -95 618 -323V-428Q416 -287 305 -24T193 559Q193 831 320 1108T618 1475Z"  />
<glyph unicode=")" horiz-adv-x="752" d="M193 -428V-323Q391 -95 391 557Q391 1106 193 1392V1475Q364 1386 491 1109T618 559Q618 240 507 -23T193 -428Z"  />
<glyph unicode="*" horiz-adv-x="752" d="M597 1127L424 1124L582 1019L629 957L507 853L453 923L371 1082L280 920L237 856L106 957L156 1026L314 1109L138 1136L48 1168L120 1318L216 1281L341 1186L278 1391V1470H454V1394L394 1183L552 1290L626 1317L683 1156L597 1127Z"  />
<glyph unicode="+" horiz-adv-x="1074" d="M611 706H960V565H611V220H470V565H122V706H470V1049H611V706Z"  />
<glyph unicode="&#x2c;" horiz-adv-x="752" d="M224 -363L173 -291Q345 -150 345 -51Q345 -7 315 37Q229 78 229 155Q229 208 270 242T373 277Q428 277 471 229T515 117Q515 -16 460 -122T224 -363Z"  />
<glyph unicode="-" horiz-adv-x="752" d="M159 506V681H587V506H159Z"  />
<glyph unicode="." horiz-adv-x="752" d="M354 281Q416 281 460 237T504 131Q504 69 460 25T354 -20Q292 -20 248 24T204 131Q204 193 248 237T354 281Z"  />
<glyph unicode="/" horiz-adv-x="1074" d="M350 0H189L720 1471H879L350 0Z"  />
<glyph unicode="0" horiz-adv-x="1074" d="M64 777Q64 1093 192 1292T552 1491Q782 1491 897 1325T1013 745Q1013 389 892 185T538 -20Q305 -20 185 145T64 777ZM264 759Q264 150 524 150Q673 150 743 285T813 758Q813 991 786 1100T699 1265T547 1321Q264 1321 264 759Z"  />
<glyph unicode="1" horiz-adv-x="1074" d="M498 0V1123L200 937V1124Q313 1181 440 1281T638 1471H698V0H498Z"  />
<glyph unicode="2" horiz-adv-x="1074" d="M69 0V40L528 743Q672 964 672 1118Q672 1321 443 1321Q362 1321 291 1279T188 1171L59 1277Q93 1375 192 1433T433 1491Q644 1491 763 1394T882 1118Q882 953 724 702L395 180H969V0H69Z"  />
<glyph unicode="3" horiz-adv-x="1074" d="M109 104L205 258Q303 150 453 150Q731 150 731 422Q731 546 650 623T435 701H419V863H428Q682 863 682 1087Q682 1321 443 1321Q313 1321 236 1234L147 1370Q240 1491 458 1491Q650 1491 771 1389T892 1126Q892 1004 825 910T666 784Q792 743 866 645T941 406Q941 202 812 91T450 -20Q352 -20 258 16T109 104Z"  />
<glyph unicode="4" horiz-adv-x="1074" d="M882 399V0H692V399H25V513L812 1471H882V553H1030V399H882ZM692 1072L262 553H692V1072Z"  />
<glyph unicode="5" horiz-adv-x="1074" d="M232 715L164 762V1471H893V1301H354V945Q428 1000 542 1000Q746 1000 853 878T961 531Q961 -20 470 -20Q265 -20 130 94L207 261Q343 150 469 150Q751 150 751 502Q751 830 473 830Q339 830 232 715Z"  />
<glyph unicode="6" horiz-adv-x="1074" d="M672 1491L769 1384Q681 1349 515 1148T330 837Q413 917 561 917Q755 917 872 793T989 452Q989 237 869 106T566 -25Q84 -25 84 614Q84 880 272 1158T672 1491ZM294 458Q294 145 551 145Q659 145 721 226T784 442Q784 581 718 664T548 747Q294 747 294 458Z"  />
<glyph unicode="7" horiz-adv-x="1074" d="M428 0H206Q280 235 455 621T775 1281H84V1471H1034V1393L905 1139Q840 1010 769 856T630 542T511 245T428 0Z"  />
<glyph unicode="8" horiz-adv-x="1074" d="M353 815Q260 865 201 954T142 1138Q142 1301 252 1396T538 1491Q727 1491 831 1396T935 1137Q935 1041 872 942T726 795Q990 647 990 406Q990 203 868 92T533 -20Q89 -20 89 406Q89 529 165 648T353 815ZM598 877Q734 1005 734 1142Q734 1224 680 1272T538 1321Q342 1321 342 1140Q342 1006 598 877ZM509 728Q289 609 289 406Q289 297 357 224T533 150Q645 150 717 222T790 406Q790 487 740 558T509 728Z"  />
<glyph unicode="9" horiz-adv-x="1074" d="M391 -25L294 82Q381 117 548 318T733 628Q651 549 502 549Q308 549 191 673T74 1014Q74 1229 194 1360T497 1491Q979 1491 979 852Q979 586 791 308T391 -25ZM769 1008Q769 1321 512 1321Q404 1321 342 1240T279 1024Q279 885 345 802T515 719Q769 719 769 1008Z"  />
<glyph unicode=":" horiz-adv-x="752" d="M354 1091Q416 1091 460 1047T504 941Q504 879 460 835T354 790Q292 790 248 834T204 941Q204 1003 248 1047T354 1091ZM354 281Q416 281 460 237T504 131Q504 69 460 25T354 -20Q292 -20 248 24T204 131Q204 193 248 237T354 281Z"  />
<glyph unicode=";" horiz-adv-x="752" d="M354 1091Q416 1091 460 1047T504 941Q504 879 460 835T354 790Q292 790 248 834T204 941Q204 1003 248 1047T354 1091ZM224 -363L173 -291Q345 -150 345 -51Q345 -7 315 37Q229 78 229 155Q229 208 270 242T373 277Q428 277 471 229T515 117Q515 -16 460 -122T224 -363Z"  />
<glyph unicode="&lt;" horiz-adv-x="1074" d="M889 218L150 576V699L889 1053V892L318 637L889 379V218Z"  />
<glyph unicode="=" horiz-adv-x="1074" d="M960 876V735H122V876H960ZM960 536V395H122V536H960Z"  />
<glyph unicode="&gt;" horiz-adv-x="1074" d="M889 576L150 218V379L721 637L150 892V1053L889 699V576Z"  />
<glyph unicode="?" horiz-adv-x="752" d="M366 429H234Q200 524 200 566Q200 638 226 713T346 892T472 1053T504 1162Q504 1338 291 1338Q189 1338 113 1265L40 1408Q141 1491 341 1491Q491 1491 590 1406T690 1179Q690 1107 665 1041T586 918L440 762Q352 654 352 520Q352 499 366 429ZM324 281Q386 281 430 237T474 131Q474 69 430 25T324 -20Q262 -20 218 24T174 131Q174 193 218 237T324 281Z"  />
<glyph unicode="@" horiz-adv-x="1578" d="M1176 116Q1222 99 1311 58Q1119 -134 805 -134Q485 -134 293 63T100 581Q100 907 295 1116T805 1325Q1108 1325 1293 1144T1478 661Q1478 491 1389 373T1152 254Q993 254 922 324Q837 246 721 246Q614 246 548 304T482 462Q482 588 590 654T882 720Q867 867 764 867Q659 867 598 811L550 910Q632 971 750 971Q1028 971 1028 652V413Q1100 360 1150 360Q1336 360 1336 664Q1336 895 1186 1049T805 1203Q552 1203 397 1028T242 581Q242 314 395 151T805 -12Q1036 -12 1176 116ZM882 393V627H831Q636 627 636 467Q636 413 674 378T769 343Q832 343 882 393Z"  />
<glyph unicode="A" horiz-adv-x="1208" d="M982 0L881 309H336L228 0H4L599 1485H652L1204 0H982ZM616 1101L389 456H824L616 1101Z"  />
<glyph unicode="B" horiz-adv-x="1159" d="M568 0H150V1465Q417 1478 535 1478Q752 1478 871 1385T990 1117Q990 1015 914 931T746 826Q920 784 999 687T1079 423Q1079 230 938 115T568 0ZM350 1305V884Q413 878 506 878Q790 878 790 1109Q790 1312 529 1312Q429 1312 350 1305ZM350 729V170Q453 160 508 160Q696 160 782 230T869 455Q869 598 787 666T511 734L350 729Z"  />
<glyph unicode="C" horiz-adv-x="1225" d="M1085 1411L1018 1240Q922 1310 716 1310Q523 1310 407 1144T290 716Q290 466 409 311T718 155Q924 155 1035 301L1145 148Q971 -25 697 -25Q410 -25 245 182T80 728Q80 1056 256 1273T711 1490Q950 1490 1085 1411Z"  />
<glyph unicode="D" horiz-adv-x="1256" d="M445 0H150V1465Q432 1475 511 1475Q818 1475 997 1289T1176 792Q1176 0 445 0ZM350 1285V190Q417 180 516 180Q726 180 846 337T966 775Q966 1295 499 1295Q471 1295 350 1285Z"  />
<glyph unicode="E" horiz-adv-x="1097" d="M350 1285V878H834V708H350V180H1014V0H150V1465H1025V1285H350Z"  />
<glyph unicode="F" horiz-adv-x="1075" d="M350 1285V878H865V708H350V0H150V1465H1055V1285H350Z"  />
<glyph unicode="G" horiz-adv-x="1385" d="M1165 1363L1082 1198Q931 1310 786 1310Q556 1310 423 1148T290 719Q290 465 420 310T776 155Q936 155 1035 251V594H832V764H1235V126Q1155 58 1012 17T734 -25Q431 -25 256 180T80 727Q80 1067 272 1278T792 1490Q1021 1490 1165 1363Z"  />
<glyph unicode="H" horiz-adv-x="1340" d="M990 0V708H350V0H150V1465H350V878H990V1465H1190V0H990Z"  />
<glyph unicode="I" horiz-adv-x="570" d="M185 0V1465H385V0H185Z"  />
<glyph unicode="J" horiz-adv-x="976" d="M49 293H224Q248 160 383 160Q517 160 571 217T626 539V1465H826V547Q826 247 729 114T384 -20Q241 -20 150 65T49 293Z"  />
<glyph unicode="K" horiz-adv-x="1179" d="M958 0L545 674L350 397V0H150V1465H350V668L894 1465H1117L679 830L1179 0H958Z"  />
<glyph unicode="L" horiz-adv-x="1037" d="M150 0V1465H350V180H1012V0H150Z"  />
<glyph unicode="M" horiz-adv-x="1453" d="M1253 0L1079 941L759 -20H709L380 941L210 0H20L294 1465H385L734 396L1056 1465H1146L1443 0H1253Z"  />
<glyph unicode="N" horiz-adv-x="1307" d="M1097 -20L340 1051V0H150V1465H230L967 452V1465H1157V-20H1097Z"  />
<glyph unicode="O" horiz-adv-x="1380" d="M80 745Q80 1063 239 1277T670 1491Q975 1491 1137 1294T1300 745Q1300 384 1137 180T670 -25Q393 -25 237 191T80 745ZM290 745Q290 493 389 324T670 155Q875 155 982 310T1090 745Q1090 1311 670 1311Q484 1311 387 1159T290 745Z"  />
<glyph unicode="P" horiz-adv-x="1142" d="M350 564V0H150V1465Q377 1475 424 1475Q1062 1475 1062 1048Q1062 554 498 554Q464 554 350 564ZM350 1285V744Q477 734 484 734Q856 734 856 1027Q856 1295 459 1295Q419 1295 350 1285Z"  />
<glyph unicode="Q" horiz-adv-x="1384" d="M1520 -108L1490 -303Q966 -303 803 -12Q772 -25 670 -25Q393 -25 237 191T80 745Q80 1062 239 1276T670 1491Q975 1491 1137 1294T1300 745Q1300 240 998 52Q1107 -108 1364 -108H1520ZM670 1311Q484 1311 387 1159T290 745Q290 493 389 324T670 155Q876 155 983 311T1090 745Q1090 1311 670 1311Z"  />
<glyph unicode="R" horiz-adv-x="1192" d="M963 0L572 629Q505 629 360 639V0H160V1465Q171 1465 315 1472T526 1480Q1054 1480 1054 1060Q1054 922 969 812T767 674L1192 0H963ZM360 1285V809Q432 799 500 799Q680 799 762 857T844 1064Q844 1187 756 1241T478 1295Q448 1295 360 1285Z"  />
<glyph unicode="S" horiz-adv-x="985" d="M84 67L157 251Q213 210 296 183T446 155Q563 155 634 219T705 382Q705 456 666 519T467 658L349 713Q199 783 140 879T80 1110Q80 1274 196 1382T494 1490Q737 1490 832 1411L773 1237Q733 1266 651 1293T499 1320Q397 1320 339 1262T280 1113Q280 1057 301 1011T359 934T513 847L633 790Q783 719 843 621T904 370Q904 205 772 90T417 -25Q222 -25 84 67Z"  />
<glyph unicode="T" horiz-adv-x="1189" d="M684 1285V0H484V1285H18V1465H1171V1285H684Z"  />
<glyph unicode="U" horiz-adv-x="1328" d="M150 1465H350V462Q350 328 435 242T660 155Q808 155 893 239T978 467V1465H1178V446Q1178 224 1040 100T662 -25Q416 -25 283 97T150 447V1465Z"  />
<glyph unicode="V" horiz-adv-x="1203" d="M660 -20H559L13 1465H235L612 386L975 1465H1190L660 -20Z"  />
<glyph unicode="W" horiz-adv-x="1745" d="M1276 -20H1213L864 990L538 -20H475L13 1465H221L515 442L837 1465H907L1225 444L1524 1465H1732L1276 -20Z"  />
<glyph unicode="X" horiz-adv-x="1140" d="M915 0L551 588L215 0H13L445 760L48 1466L245 1465L558 911L903 1465H1104L649 756L1127 0H915Z"  />
<glyph unicode="Y" horiz-adv-x="1168" d="M685 656V0H485V656L13 1465H219L584 825L949 1465H1155L685 656Z"  />
<glyph unicode="Z" horiz-adv-x="1127" d="M100 0V50L730 1285H110V1465H1005V1415L373 180H1027V0H100Z"  />
<glyph unicode="[" horiz-adv-x="752" d="M202 -420V1510H665V1340H402V-250H665V-420H202Z"  />
<glyph unicode="\" horiz-adv-x="728" d="M512 0L-3 1471H139L655 0H512Z"  />
<glyph unicode="]" horiz-adv-x="752" d="M550 -420H87V-250H350V1340H87V1510H550V-420Z"  />
<glyph unicode="^" horiz-adv-x="1074" d="M763 907L519 1355L271 903H149L467 1471H574L890 907H763Z"  />
<glyph unicode="_" horiz-adv-x="1074" d="M-8 -254V-125H1077V-254H-8Z"  />
<glyph unicode="`" horiz-adv-x="1074" d="M559 1285L333 1618H530L699 1285H559Z"  />
<glyph unicode="a" horiz-adv-x="1076" d="M740 123Q626 -20 391 -20Q265 -20 173 71T80 299Q80 462 222 574T586 687Q646 687 722 661Q722 921 490 921Q312 921 216 825L136 984Q190 1028 285 1059T468 1091Q701 1091 806 985T912 648V264Q912 123 996 76V-19Q880 -19 823 14T740 123ZM722 526Q632 546 596 546Q452 546 361 472T270 297Q270 130 467 130Q611 130 722 267V526Z"  />
<glyph unicode="b" horiz-adv-x="1141" d="M297 77L230 -20H135V1510H325V992Q352 1029 426 1060T573 1091Q793 1091 929 939T1066 555Q1066 287 929 134T558 -20Q482 -20 409 8T297 77ZM325 847V229Q325 213 396 177T504 140Q698 140 782 233T866 545Q866 727 768 829T504 931Q469 931 407 901T325 847Z"  />
<glyph unicode="c" horiz-adv-x="1014" d="M943 984L849 850Q820 879 747 905T602 931Q447 931 356 823T265 525Q265 337 358 239T616 140Q744 140 874 239L949 79Q796 -20 570 -20Q351 -20 208 127T65 525Q65 781 213 936T620 1091Q703 1091 800 1056T943 984Z"  />
<glyph unicode="d" horiz-adv-x="1141" d="M814 1V80Q715 -19 526 -19Q325 -19 200 125T75 509Q75 750 219 920T562 1091Q728 1091 814 1013V1510H1004V1H814ZM814 823Q742 931 617 931Q464 931 370 817T275 527Q275 140 627 140Q672 140 735 168T814 229V823Z"  />
<glyph unicode="e" horiz-adv-x="1117" d="M1037 517H265Q265 329 368 228Q459 140 602 140Q765 140 874 235L954 98Q910 54 819 22Q705 -20 565 -20Q363 -20 222 117Q65 268 65 523Q65 788 226 948Q370 1091 567 1091Q796 1091 926 962Q1052 838 1052 633Q1052 570 1037 517ZM576 931Q449 931 363 849Q281 771 270 655H863Q863 770 791 847Q712 931 576 931Z"  />
<glyph unicode="f" horiz-adv-x="757" d="M714 1340Q656 1360 606 1360Q519 1360 463 1294T406 1127Q406 1100 411 1071H629V911H411V0H221V911H65V1071H221Q221 1276 322 1393T589 1510Q672 1510 767 1480L714 1340Z"  />
<glyph unicode="g" horiz-adv-x="1028" d="M96 -293L199 -141Q365 -252 505 -252Q634 -252 708 -208T783 -97Q783 33 595 33Q563 33 479 17T348 1Q120 1 120 173Q120 226 173 269T306 331Q80 437 80 699Q80 867 197 979T486 1091Q644 1091 733 1026L828 1140L952 1023L838 937Q911 842 911 689Q911 527 810 417T545 291L388 275Q360 272 313 254T266 205Q266 164 364 164Q407 164 498 179T633 195Q791 195 879 120T968 -90Q968 -238 836 -329T500 -420Q396 -420 281 -383T96 -293ZM499 938Q400 938 338 868T275 698Q275 586 335 513T499 439Q600 439 657 510T714 698Q714 798 653 868T499 938Z"  />
<glyph unicode="h" horiz-adv-x="1119" d="M795 0V673Q795 793 736 862T570 931Q501 931 432 891T325 796V0H135V1510H325V953Q363 1012 447 1051T622 1091Q792 1091 888 979T985 673V0H795Z"  />
<glyph unicode="i" horiz-adv-x="584" d="M331 1476Q380 1476 414 1442T449 1359Q449 1310 415 1276T331 1241Q283 1241 249 1275T214 1359Q214 1408 248 1442T331 1476ZM227 0V911H80V1071H417V0H227Z"  />
<glyph unicode="j" horiz-adv-x="751" d="M428 1476Q477 1476 511 1442T546 1359Q546 1310 512 1276T428 1241Q379 1241 345 1275T311 1359Q311 1408 345 1442T428 1476ZM18 -420V-250Q214 -250 286 -191T359 5V911H146V1071H549V9Q549 -212 419 -316T18 -420Z"  />
<glyph unicode="k" horiz-adv-x="1033" d="M827 0L491 536L325 365V0H135V1510H325V573L735 1071H957L614 664L1033 0H827Z"  />
<glyph unicode="l" horiz-adv-x="604" d="M150 303V1510H340V335Q340 249 389 200T519 150V-20Q150 -20 150 303Z"  />
<glyph unicode="m" horiz-adv-x="1700" d="M1375 0V678Q1375 931 1156 931Q1087 931 1027 889T945 792V0H755V761Q755 840 696 885T538 931Q481 931 417 887T325 790V0H135V1071H259L322 947Q432 1091 597 1091Q827 1091 919 948Q951 1009 1038 1050T1217 1091Q1383 1091 1474 993T1565 716V0H1375Z"  />
<glyph unicode="n" horiz-adv-x="1119" d="M794 0V623Q794 794 743 862T570 931Q505 931 434 892T325 796V0H135V1071H265L325 933Q419 1091 632 1091Q984 1091 984 663V0H794Z"  />
<glyph unicode="o" horiz-adv-x="1099" d="M65 538Q65 786 198 938T550 1091Q780 1091 907 945T1034 538Q1034 279 904 130T550 -20Q321 -20 193 131T65 538ZM265 538Q265 135 550 135Q683 135 758 243T834 538Q834 936 550 936Q420 936 343 830T265 538Z"  />
<glyph unicode="p" horiz-adv-x="1141" d="M325 59V-420H135V1071H325V983Q433 1091 586 1091Q814 1091 941 949T1068 533Q1068 289 940 135T570 -20Q502 -20 425 4T325 59ZM325 840V216Q343 189 401 165T514 140Q868 140 868 540Q868 743 784 837T515 931Q475 931 417 903T325 840Z"  />
<glyph unicode="q" horiz-adv-x="1141" d="M821 -420V63Q738 -20 543 -20Q324 -20 200 126T75 533Q75 790 217 940T584 1091Q724 1091 845 990L896 1071H1011V-420H821ZM821 849Q739 931 616 931Q455 931 365 822T275 533Q275 347 365 244T608 140Q745 140 821 210V849Z"  />
<glyph unicode="r" horiz-adv-x="796" d="M717 888Q655 931 592 931Q491 931 416 838T340 614V0H150V1071H340V900Q444 1091 649 1091Q700 1091 796 1073L717 888Z"  />
<glyph unicode="s" horiz-adv-x="829" d="M65 64L132 244Q291 140 388 140Q564 140 564 288Q564 394 394 470Q263 530 218 561T139 631T89 715T72 811Q72 943 168 1017T419 1091Q536 1091 714 1017L660 841Q547 931 433 931Q365 931 319 899T272 818Q272 715 389 662L525 600Q650 543 707 470T764 287Q764 143 663 62T383 -20Q214 -20 65 64Z"  />
<glyph unicode="t" horiz-adv-x="812" d="M203 921H79V1071H203V1295L393 1368V1071H687V921H393V389Q393 254 438 197T585 140Q658 140 736 177L764 10Q646 -20 505 -20Q378 -20 291 74T203 313V921Z"  />
<glyph unicode="u" horiz-adv-x="1119" d="M315 1071V388Q315 140 530 140Q624 140 702 194T805 319V1071H995V0H805V148Q773 85 677 33T488 -20Q312 -20 219 81T125 368V1071H315Z"  />
<glyph unicode="v" horiz-adv-x="1003" d="M521 -20H471L12 1074H220L503 324L792 1074H991L521 -20Z"  />
<glyph unicode="w" horiz-adv-x="1524" d="M1125 -20H1075L761 709L448 -20H398L15 1074H218L447 371L732 1074H782L1076 371L1322 1074H1509L1125 -20Z"  />
<glyph unicode="x" horiz-adv-x="1026" d="M787 0L495 390L234 0H12L401 548L44 1071H258L498 703L767 1071H977L588 548L1014 0H787Z"  />
<glyph unicode="y" horiz-adv-x="1010" d="M544 -182Q507 -284 389 -352T124 -420V-250Q243 -250 328 -195T413 -59Q413 29 382 114T302 326L12 1071H206L521 243L804 1071H998L544 -182Z"  />
<glyph unicode="z" horiz-adv-x="972" d="M338 170H932V0H40V50L649 901H50V1071H926V1017L338 170Z"  />
<glyph unicode="{" horiz-adv-x="752" d="M568 -420Q397 -420 285 -338T173 -122Q173 -52 210 92T247 311Q247 509 38 523V607Q137 615 192 676T247 836Q247 904 210 1029T173 1216Q173 1344 284 1423T559 1502H707V1369H532Q368 1369 368 1185Q368 1120 399 1018T431 855Q431 697 206 567Q311 524 371 455T431 317Q431 252 400 137T368 -52Q368 -280 631 -280H707V-420H568Z"  />
<glyph unicode="|" horiz-adv-x="1074" d="M462 -276V1405H608V-276H462Z"  />
<glyph unicode="}" horiz-adv-x="752" d="M38 -420V-280H114Q377 -280 377 -52Q377 22 346 137T314 317Q314 386 374 455T539 567Q314 697 314 855Q314 916 345 1018T377 1185Q377 1369 213 1369H38V1502H186Q349 1502 460 1423T572 1216Q572 1155 535 1030T498 836Q498 738 553 677T707 607V523Q498 509 498 311Q498 237 535 95T572 -122Q572 -256 460 -338T177 -420H38Z"  />
<glyph unicode="~" horiz-adv-x="1074" d="M904 716Q851 509 712 509Q633 509 509 547T357 586Q286 586 249 509H158Q172 593 222 654T342 716Q429 716 544 678T708 639Q789 639 816 716H904Z"  />
<glyph unicode="&#xA0;" horiz-adv-x="617" />
<glyph unicode="&#xA1;" horiz-adv-x="752" d="M384 790Q322 790 278 834T234 940Q234 1002 278 1046T384 1091Q446 1091 490 1047T534 940Q534 878 490 834T384 790ZM491 -11V-420H265V-10Q265 186 342 689H413Q491 177 491 -11Z"  />
<glyph unicode="&#xA2;" horiz-adv-x="1074" d="M694 1217H796L725 969Q834 943 895 894L817 781Q779 819 687 837L518 247Q571 227 634 227Q736 227 840 306L900 170Q778 91 597 91Q535 91 478 106L404 -152H289L377 148Q193 258 193 527Q193 729 308 852T624 980L694 1217ZM425 309L583 841Q482 825 418 738T353 527Q353 387 425 309Z"  />
<glyph unicode="&#xA3;" horiz-adv-x="1074" d="M140 856H222V1004Q222 1237 334 1364T629 1491Q834 1491 922 1370L828 1237Q764 1323 606 1323Q422 1323 422 1012V856H621V707H422V180H645Q797 180 879 293L1021 182Q919 0 576 0H132V139Q222 169 222 268V707H140V856Z"  />
<glyph unicode="&#xA4;" horiz-adv-x="1074" d="M932 246L789 390Q668 306 536 306Q405 306 283 390L140 246L56 334L199 474Q117 601 117 726Q117 850 199 977L56 1117L140 1205L283 1062Q405 1145 536 1145Q668 1145 789 1062L932 1205L1017 1117L874 977Q956 850 956 726Q956 601 874 474L1017 334L932 246ZM236 726Q236 601 323 514T535 426Q659 426 746 514T834 726Q834 851 747 938T535 1025Q410 1025 323 938T236 726Z"  />
<glyph unicode="&#xA5;" horiz-adv-x="1168" d="M932 475H678V0H478V475H235V606H478V656L39 1465H245L577 825L945 1465H1142L678 656V606H932V475Z"  />
<glyph unicode="&#xA6;" horiz-adv-x="1074" d="M472 694V1417H618V694H472ZM472 -276V447H618V-276H472Z"  />
<glyph unicode="&#xA7;" horiz-adv-x="929" d="M204 937Q85 1005 85 1180Q85 1317 203 1403T477 1490Q541 1490 629 1461T766 1391L704 1207Q596 1310 482 1310Q295 1310 295 1183Q295 1139 325 1100T512 1022T738 913T808 725Q808 627 727 543Q850 461 850 322Q850 155 742 66T450 -23Q228 -23 101 69L169 255Q278 155 439 155Q640 155 640 302Q640 437 411 484Q275 512 191 587T107 740Q107 876 204 937ZM355 881Q291 839 291 788Q291 757 320 720T405 662T596 612Q614 648 614 707Q614 752 590 784T523 836T453 859T355 881Z"  />
<glyph unicode="&#xA8;" horiz-adv-x="1074" d="M302 1513Q349 1513 381 1481T414 1401Q414 1354 382 1321T302 1288Q255 1288 222 1321T189 1401Q189 1448 222 1480T302 1513ZM774 1513Q821 1513 854 1481T887 1401Q887 1354 854 1321T774 1288Q727 1288 695 1321T662 1401Q662 1448 694 1480T774 1513Z"  />
<glyph unicode="&#xA9;" horiz-adv-x="1460" d="M105 661Q105 940 303 1137T780 1335Q1059 1335 1256 1138T1454 661Q1454 382 1257 184T780 -14Q501 -14 303 184T105 661ZM1344 661Q1344 895 1179 1060T780 1225Q546 1225 381 1060T215 661Q215 427 380 262T780 96Q1014 96 1179 261T1344 661ZM1038 335Q938 236 784 236Q622 236 528 352T434 663Q434 850 534 972T792 1095Q929 1095 1004 1051L966 954Q912 993 794 993Q684 993 619 899T553 657Q553 515 621 427T796 339Q913 339 975 421L1038 335Z"  />
<glyph unicode="&#xAA;" horiz-adv-x="752" d="M513 902Q438 824 297 824Q208 824 148 874T87 1002Q87 1117 180 1184T423 1251H462L497 1250Q494 1377 359 1377Q250 1377 184 1315L126 1423Q217 1491 345 1491Q633 1491 633 1224V999Q633 920 686 892V825Q547 825 513 902ZM498 1157H426Q334 1157 278 1117T221 1017Q221 979 256 956T344 933Q436 933 498 1002V1157Z"  />
<glyph unicode="&#xAB;" horiz-adv-x="1074" d="M130 535V599L485 843V718L273 561L485 423V298L130 535ZM528 535V599L883 843V718L671 561L883 423V298L528 535Z"  />
<glyph unicode="&#xAC;" horiz-adv-x="1074" d="M960 886V400H819V745H122V886H960Z"  />
<glyph unicode="&#xAD;" horiz-adv-x="752" d="M159 506V681H587V506H159Z"  />
<glyph unicode="&#xAE;" horiz-adv-x="1460" d="M105 661Q105 940 303 1137T780 1335Q1059 1335 1256 1138T1454 661Q1454 382 1257 184T780 -14Q501 -14 303 184T105 661ZM1344 661Q1344 895 1179 1060T780 1225Q546 1225 381 1060T215 661Q215 427 380 262T780 96Q1014 96 1179 261T1344 661ZM990 254L779 611H659V254H540V1085H753Q1053 1085 1053 855Q1053 695 892 629L1119 254H990ZM659 983V707Q674 705 737 705Q853 705 893 734T933 847Q933 984 753 984H706L659 983Z"  />
<glyph unicode="&#xAF;" horiz-adv-x="1074" d="M-8 1546V1675H1077V1546H-8Z"  />
<glyph unicode="&#xB0;" horiz-adv-x="1074" d="M508 1072Q420 1072 358 1133T296 1282Q296 1369 358 1430T508 1491Q596 1491 657 1430T719 1282Q719 1195 657 1134T508 1072ZM508 1421Q451 1421 410 1380T369 1282Q369 1225 410 1184T508 1143Q565 1143 606 1184T647 1282Q647 1339 606 1380T508 1421Z"  />
<glyph unicode="&#xB1;" horiz-adv-x="1074" d="M611 706H960V565H611V220H470V565H122V706H470V1049H611V706ZM960 121V-20H122V121H960Z"  />
<glyph unicode="&#xB2;" horiz-adv-x="924" d="M184 595V619L450 1033Q536 1167 536 1256Q536 1378 408 1378Q301 1378 239 1254L162 1317Q188 1391 255 1440T402 1490Q666 1490 666 1266Q666 1146 573 1000L390 713H724V595H184Z"  />
<glyph unicode="&#xB3;" horiz-adv-x="929" d="M185 657L244 759Q293 705 392 705Q555 705 555 847Q555 920 509 965T381 1010H371V1112H377Q525 1112 525 1251Q525 1370 386 1370Q301 1370 262 1326L208 1417Q264 1490 395 1490Q511 1490 583 1428T655 1270Q655 1197 616 1142T520 1065Q685 1011 685 838Q685 585 390 585Q261 585 185 657Z"  />
<glyph unicode="&#xB4;" horiz-adv-x="1074" d="M744 1618L518 1285H378L547 1618H744Z"  />
<glyph unicode="&#xB5;" horiz-adv-x="1119" d="M325 18V-420H135V1071H325V448Q325 146 560 146Q644 146 708 189T795 295V1071H985V0H795V148Q761 73 683 27T508 -20Q400 -20 325 18Z"  />
<glyph unicode="&#xB6;" horiz-adv-x="1074" d="M778 -250V1366H620V-250H466V643Q118 643 118 1077Q118 1253 199 1371T425 1489H932V-250H778Z"  />
<glyph unicode="&#xB7;" horiz-adv-x="752" d="M355 801Q417 801 461 757T505 651Q505 589 461 545T355 500Q293 500 249 544T205 651Q205 713 249 757T355 801Z"  />
<glyph unicode="&#xB8;" horiz-adv-x="1074" d="M355 -455L331 -356Q409 -356 461 -329T513 -254Q513 -180 423 -180V-61Q522 -61 577 -117T632 -254Q632 -348 559 -401T355 -455Z"  />
<glyph unicode="&#xB9;" horiz-adv-x="924" d="M439 595V1269L251 1157V1270Q448 1369 533 1478H569V595H439Z"  />
<glyph unicode="&#xBA;" horiz-adv-x="752" d="M66 1159Q66 1307 152 1399T379 1491Q528 1491 609 1402T691 1159Q691 1006 609 915T379 824Q232 824 149 914T66 1159ZM207 1159Q207 938 379 938Q550 938 550 1159Q550 1377 379 1377Q207 1377 207 1159Z"  />
<glyph unicode="&#xBB;" horiz-adv-x="1074" d="M525 535L170 298V423L382 561L170 718V843L525 599V535ZM923 535L568 298V423L780 561L568 718V843L923 599V535Z"  />
<glyph unicode="&#xBC;" horiz-adv-x="1668" d="M349 -35H221L1195 1491H1321L349 -35ZM259 595V1259L81 1157V1270Q278 1369 363 1478H399V595H259ZM1400 210V0H1270V210H866V278L1358 883H1400V312H1489V210H1400ZM1270 623L1018 312H1270V623Z"  />
<glyph unicode="&#xBD;" horiz-adv-x="1668" d="M336 -35H208L1182 1491H1308L336 -35ZM289 595V1269L101 1157V1270Q298 1369 383 1478H419V595H289ZM1024 0V24L1290 438Q1376 572 1376 661Q1376 783 1248 783Q1141 783 1079 659L1002 722Q1028 796 1095 845T1242 895Q1506 895 1506 671Q1506 551 1413 405L1230 118H1564V0H1024Z"  />
<glyph unicode="&#xBE;" horiz-adv-x="1668" d="M429 -35H301L1275 1491H1401L429 -35ZM125 657L184 759Q233 705 332 705Q495 705 495 847Q495 920 449 965T321 1010H311V1112H317Q465 1112 465 1251Q465 1370 326 1370Q241 1370 202 1326L148 1417Q204 1490 335 1490Q451 1490 523 1428T595 1270Q595 1197 556 1142T460 1065Q625 1011 625 838Q625 585 330 585Q201 585 125 657ZM1430 210V0H1300V210H896V278L1388 883H1430V312H1519V210H1430ZM1300 623L1048 312H1300V623Z"  />
<glyph unicode="&#xBF;" horiz-adv-x="752" d="M406 790Q344 790 300 834T256 940Q256 1002 300 1046T406 1091Q468 1091 512 1047T556 940Q556 878 512 834T406 790ZM364 642H496Q530 547 530 505Q530 433 504 358T384 179T258 18T226 -91Q226 -267 439 -267Q541 -267 617 -194L690 -337Q589 -420 389 -420Q239 -420 140 -335T40 -108Q40 -36 65 30T144 153L290 309Q378 417 378 551Q378 572 364 642Z"  />
<glyph unicode="&#xC0;" horiz-adv-x="1208" d="M982 0L881 309H336L228 0H4L599 1485H652L1204 0H982ZM616 1101L389 456H824L616 1101ZM578 1585L352 1918H549L718 1585H578Z"  />
<glyph unicode="&#xC1;" horiz-adv-x="1208" d="M982 0L881 309H336L228 0H4L599 1485H652L1204 0H982ZM616 1101L389 456H824L616 1101ZM859 1918L633 1585H493L662 1918H859Z"  />
<glyph unicode="&#xC2;" horiz-adv-x="1208" d="M982 0L881 309H336L228 0H4L599 1485H652L1204 0H982ZM616 1101L389 456H824L616 1101ZM778 1585L615 1774L437 1585H265L563 1923H670L975 1585H778Z"  />
<glyph unicode="&#xC3;" horiz-adv-x="1208" d="M982 0L881 309H336L228 0H4L599 1485H652L1204 0H982ZM616 1101L389 456H824L616 1101ZM932 1792Q879 1585 740 1585Q677 1585 602 1623T495 1662Q424 1662 387 1585H296Q310 1669 360 1730T480 1792Q562 1792 631 1754T736 1715Q817 1715 844 1792H932Z"  />
<glyph unicode="&#xC4;" horiz-adv-x="1208" d="M982 0L881 309H336L228 0H4L599 1485H652L1204 0H982ZM616 1101L389 456H824L616 1101ZM386 1813Q433 1813 465 1781T498 1701Q498 1654 466 1621T386 1588Q339 1588 306 1621T273 1701Q273 1748 306 1780T386 1813ZM858 1813Q905 1813 938 1781T971 1701Q971 1654 938 1621T858 1588Q811 1588 779 1621T746 1701Q746 1748 778 1780T858 1813Z"  />
<glyph unicode="&#xC5;" horiz-adv-x="1208" d="M683 1402L1204 0H982L881 309H332L228 0H4L566 1404Q500 1424 458 1479T415 1605Q415 1692 477 1753T627 1814Q715 1814 776 1753T838 1605Q838 1533 795 1477T683 1402ZM627 1505Q669 1505 698 1534T728 1605Q728 1646 699 1675T627 1704Q585 1704 555 1675T525 1605Q525 1564 555 1535T627 1505ZM616 1101L389 456H824L616 1101Z"  />
<glyph unicode="&#xC6;" horiz-adv-x="1775" d="M828 307H380L241 0H17L722 1465H1703V1285H1028V878H1512V708H1028V180H1692V0H828V307ZM828 1285L444 456H828V1285Z"  />
<glyph unicode="&#xC7;" horiz-adv-x="1225" d="M1085 1411L1018 1240Q922 1310 716 1310Q523 1310 407 1144T290 716Q290 466 409 311T718 155Q924 155 1035 301L1145 148Q971 -25 697 -25Q410 -25 245 182T80 728Q80 1056 256 1273T711 1490Q950 1490 1085 1411ZM467 -455L443 -356Q521 -356 573 -329T625 -254Q625 -180 535 -180V-61Q634 -61 689 -117T744 -254Q744 -348 671 -401T467 -455Z"  />
<glyph unicode="&#xC8;" horiz-adv-x="1097" d="M350 1285V878H834V708H350V180H1014V0H150V1465H1025V1285H350ZM592 1585L366 1918H563L732 1585H592Z"  />
<glyph unicode="&#xC9;" horiz-adv-x="1097" d="M350 1285V878H834V708H350V180H1014V0H150V1465H1025V1285H350ZM802 1918L576 1585H436L605 1918H802Z"  />
<glyph unicode="&#xCA;" horiz-adv-x="1097" d="M350 1285V878H834V708H350V180H1014V0H150V1465H1025V1285H350ZM718 1585L555 1774L377 1585H205L503 1923H610L915 1585H718Z"  />
<glyph unicode="&#xCB;" horiz-adv-x="1097" d="M350 1285V878H834V708H350V180H1014V0H150V1465H1025V1285H350ZM343 1813Q390 1813 422 1781T455 1701Q455 1654 423 1621T343 1588Q296 1588 263 1621T230 1701Q230 1748 263 1780T343 1813ZM815 1813Q862 1813 895 1781T928 1701Q928 1654 895 1621T815 1588Q768 1588 736 1621T703 1701Q703 1748 735 1780T815 1813Z"  />
<glyph unicode="&#xCC;" horiz-adv-x="570" d="M185 0V1465H385V0H185ZM330 1585L104 1918H301L470 1585H330Z"  />
<glyph unicode="&#xCD;" horiz-adv-x="570" d="M185 0V1465H385V0H185ZM578 1918L352 1585H212L381 1918H578Z"  />
<glyph unicode="&#xCE;" horiz-adv-x="570" d="M185 0V1465H385V0H185ZM434 1585L271 1774L93 1585H-79L219 1923H326L631 1585H434Z"  />
<glyph unicode="&#xCF;" horiz-adv-x="570" d="M185 0V1465H385V0H185ZM83 1813Q130 1813 162 1781T195 1701Q195 1654 163 1621T83 1588Q36 1588 3 1621T-30 1701Q-30 1748 3 1780T83 1813ZM555 1813Q602 1813 635 1781T668 1701Q668 1654 635 1621T555 1588Q508 1588 476 1621T443 1701Q443 1748 475 1780T555 1813Z"  />
<glyph unicode="&#xD0;" horiz-adv-x="1256" d="M15 691V851H150V1465Q432 1475 511 1475Q818 1475 997 1289T1176 792Q1176 0 445 0H150V691H15ZM350 851H499V691H350V190Q417 180 516 180Q726 180 846 337T966 775Q966 1295 499 1295Q471 1295 350 1285V851Z"  />
<glyph unicode="&#xD1;" horiz-adv-x="1307" d="M1097 -20L340 1051V0H150V1465H230L967 452V1465H1157V-20H1097ZM930 1792Q877 1585 738 1585Q675 1585 600 1623T493 1662Q422 1662 385 1585H294Q308 1669 358 1730T478 1792Q560 1792 629 1754T734 1715Q815 1715 842 1792H930Z"  />
<glyph unicode="&#xD2;" horiz-adv-x="1380" d="M80 745Q80 1063 239 1277T670 1491Q975 1491 1137 1294T1300 745Q1300 384 1137 180T670 -25Q393 -25 237 191T80 745ZM290 745Q290 493 389 324T670 155Q875 155 982 310T1090 745Q1090 1311 670 1311Q484 1311 387 1159T290 745ZM718 1585L492 1918H689L858 1585H718Z"  />
<glyph unicode="&#xD3;" horiz-adv-x="1380" d="M80 745Q80 1063 239 1277T670 1491Q975 1491 1137 1294T1300 745Q1300 384 1137 180T670 -25Q393 -25 237 191T80 745ZM290 745Q290 493 389 324T670 155Q875 155 982 310T1090 745Q1090 1311 670 1311Q484 1311 387 1159T290 745ZM889 1918L663 1585H523L692 1918H889Z"  />
<glyph unicode="&#xD4;" horiz-adv-x="1380" d="M80 745Q80 1063 239 1277T670 1491Q975 1491 1137 1294T1300 745Q1300 384 1137 180T670 -25Q393 -25 237 191T80 745ZM290 745Q290 493 389 324T670 155Q875 155 982 310T1090 745Q1090 1311 670 1311Q484 1311 387 1159T290 745ZM828 1585L665 1774L487 1585H315L613 1923H720L1025 1585H828Z"  />
<glyph unicode="&#xD5;" horiz-adv-x="1380" d="M80 745Q80 1063 239 1277T670 1491Q975 1491 1137 1294T1300 745Q1300 384 1137 180T670 -25Q393 -25 237 191T80 745ZM290 745Q290 493 389 324T670 155Q875 155 982 310T1090 745Q1090 1311 670 1311Q484 1311 387 1159T290 745ZM1000 1792Q947 1585 808 1585Q745 1585 670 1623T563 1662Q492 1662 455 1585H364Q378 1669 428 1730T548 1792Q630 1792 699 1754T804 1715Q885 1715 912 1792H1000Z"  />
<glyph unicode="&#xD6;" horiz-adv-x="1380" d="M80 745Q80 1063 239 1277T670 1491Q975 1491 1137 1294T1300 745Q1300 384 1137 180T670 -25Q393 -25 237 191T80 745ZM290 745Q290 493 389 324T670 155Q875 155 982 310T1090 745Q1090 1311 670 1311Q484 1311 387 1159T290 745ZM450 1813Q497 1813 529 1781T562 1701Q562 1654 530 1621T450 1588Q403 1588 370 1621T337 1701Q337 1748 370 1780T450 1813ZM922 1813Q969 1813 1002 1781T1035 1701Q1035 1654 1002 1621T922 1588Q875 1588 843 1621T810 1701Q810 1748 842 1780T922 1813Z"  />
<glyph unicode="&#xD7;" horiz-adv-x="1074" d="M544 728L861 1045L961 946L644 629L958 314L858 214L544 529L227 212L127 311L444 628L123 949L223 1049L544 728Z"  />
<glyph unicode="&#xD8;" horiz-adv-x="1345" d="M350 66L283 -25H67L227 186Q67 400 67 745Q67 1063 226 1277T657 1491Q871 1491 1018 1391L1085 1491H1287L1143 1271Q1287 1077 1287 745Q1287 384 1124 180T657 -25Q481 -25 350 66ZM913 1229Q814 1311 657 1311Q471 1311 374 1159T277 745Q277 528 354 367L913 1229ZM1019 1083L457 227Q541 155 657 155Q863 155 970 311T1077 745Q1077 950 1019 1083Z"  />
<glyph unicode="&#xD9;" horiz-adv-x="1328" d="M150 1465H350V462Q350 328 435 242T660 155Q808 155 893 239T978 467V1465H1178V446Q1178 224 1040 100T662 -25Q416 -25 283 97T150 447V1465ZM659 1585L433 1918H630L799 1585H659Z"  />
<glyph unicode="&#xDA;" horiz-adv-x="1328" d="M150 1465H350V462Q350 328 435 242T660 155Q808 155 893 239T978 467V1465H1178V446Q1178 224 1040 100T662 -25Q416 -25 283 97T150 447V1465ZM854 1918L628 1585H488L657 1918H854Z"  />
<glyph unicode="&#xDB;" horiz-adv-x="1328" d="M150 1465H350V462Q350 328 435 242T660 155Q808 155 893 239T978 467V1465H1178V446Q1178 224 1040 100T662 -25Q416 -25 283 97T150 447V1465ZM792 1585L629 1774L451 1585H279L577 1923H684L989 1585H792Z"  />
<glyph unicode="&#xDC;" horiz-adv-x="1328" d="M150 1465H350V462Q350 328 435 242T660 155Q808 155 893 239T978 467V1465H1178V446Q1178 224 1040 100T662 -25Q416 -25 283 97T150 447V1465ZM402 1813Q449 1813 481 1781T514 1701Q514 1654 482 1621T402 1588Q355 1588 322 1621T289 1701Q289 1748 322 1780T402 1813ZM874 1813Q921 1813 954 1781T987 1701Q987 1654 954 1621T874 1588Q827 1588 795 1621T762 1701Q762 1748 794 1780T874 1813Z"  />
<glyph unicode="&#xDD;" horiz-adv-x="1168" d="M685 656V0H485V656L13 1465H219L584 825L949 1465H1155L685 656ZM819 1918L593 1585H453L622 1918H819Z"  />
<glyph unicode="&#xDE;" horiz-adv-x="1138" d="M499 314H351V0H150V1465H351V1275H425Q1063 1275 1063 828Q1063 583 915 449T499 314ZM460 1095H351V494H485Q857 494 857 807Q857 957 765 1026T460 1095Z"  />
<glyph unicode="&#xDF;" horiz-adv-x="1119" d="M522 3L558 154L614 145Q632 142 673 150T746 181T797 238T828 322T839 433Q839 516 810 578T752 663T600 789Q516 857 516 935Q516 957 566 1000T643 1081T669 1178Q669 1340 500 1340Q404 1340 365 1265T325 1016V0H135V1115Q135 1299 227 1404T474 1510Q650 1510 747 1435T844 1232Q844 1104 749 995Q716 957 716 945Q716 924 729 913T808 868Q1039 748 1039 446Q1039 227 942 104T663 -20Q587 -20 522 3Z"  />
<glyph unicode="&#xE0;" horiz-adv-x="1076" d="M740 123Q626 -20 391 -20Q265 -20 173 71T80 299Q80 462 222 574T586 687Q646 687 722 661Q722 921 490 921Q312 921 216 825L136 984Q190 1028 285 1059T468 1091Q701 1091 806 985T912 648V264Q912 123 996 76V-19Q880 -19 823 14T740 123ZM722 526Q632 546 596 546Q452 546 361 472T270 297Q270 130 467 130Q611 130 722 267V526ZM506 1285L280 1618H477L646 1285H506Z"  />
<glyph unicode="&#xE1;" horiz-adv-x="1076" d="M740 123Q626 -20 391 -20Q265 -20 173 71T80 299Q80 462 222 574T586 687Q646 687 722 661Q722 921 490 921Q312 921 216 825L136 984Q190 1028 285 1059T468 1091Q701 1091 806 985T912 648V264Q912 123 996 76V-19Q880 -19 823 14T740 123ZM722 526Q632 546 596 546Q452 546 361 472T270 297Q270 130 467 130Q611 130 722 267V526ZM765 1618L539 1285H399L568 1618H765Z"  />
<glyph unicode="&#xE2;" horiz-adv-x="1076" d="M740 123Q626 -20 391 -20Q265 -20 173 71T80 299Q80 462 222 574T586 687Q646 687 722 661Q722 921 490 921Q312 921 216 825L136 984Q190 1028 285 1059T468 1091Q701 1091 806 985T912 648V264Q912 123 996 76V-19Q880 -19 823 14T740 123ZM722 526Q632 546 596 546Q452 546 361 472T270 297Q270 130 467 130Q611 130 722 267V526ZM681 1285L518 1474L340 1285H168L466 1623H573L878 1285H681Z"  />
<glyph unicode="&#xE3;" horiz-adv-x="1076" d="M740 123Q626 -20 391 -20Q265 -20 173 71T80 299Q80 462 222 574T586 687Q646 687 722 661Q722 921 490 921Q312 921 216 825L136 984Q190 1028 285 1059T468 1091Q701 1091 806 985T912 648V264Q912 123 996 76V-19Q880 -19 823 14T740 123ZM722 526Q632 546 596 546Q452 546 361 472T270 297Q270 130 467 130Q611 130 722 267V526ZM834 1492Q781 1285 642 1285Q579 1285 504 1323T397 1362Q326 1362 289 1285H198Q212 1369 262 1430T382 1492Q464 1492 533 1454T638 1415Q719 1415 746 1492H834Z"  />
<glyph unicode="&#xE4;" horiz-adv-x="1076" d="M740 123Q626 -20 391 -20Q265 -20 173 71T80 299Q80 462 222 574T586 687Q646 687 722 661Q722 921 490 921Q312 921 216 825L136 984Q190 1028 285 1059T468 1091Q701 1091 806 985T912 648V264Q912 123 996 76V-19Q880 -19 823 14T740 123ZM722 526Q632 546 596 546Q452 546 361 472T270 297Q270 130 467 130Q611 130 722 267V526ZM277 1513Q324 1513 356 1481T389 1401Q389 1354 357 1321T277 1288Q230 1288 197 1321T164 1401Q164 1448 197 1480T277 1513ZM749 1513Q796 1513 829 1481T862 1401Q862 1354 829 1321T749 1288Q702 1288 670 1321T637 1401Q637 1448 669 1480T749 1513Z"  />
<glyph unicode="&#xE5;" horiz-adv-x="1076" d="M740 123Q626 -20 391 -20Q265 -20 173 71T80 299Q80 462 222 574T586 687Q646 687 722 661Q722 921 490 921Q312 921 216 825L136 984Q190 1028 285 1059T468 1091Q701 1091 806 985T912 648V264Q912 123 996 76V-19Q880 -19 823 14T740 123ZM722 526Q632 546 596 546Q452 546 361 472T270 297Q270 130 467 130Q611 130 722 267V526ZM514 1704Q602 1704 663 1643T725 1495Q725 1408 663 1347T514 1285Q426 1285 364 1346T302 1495Q302 1582 364 1643T514 1704ZM514 1395Q556 1395 585 1424T615 1495Q615 1536 586 1565T514 1594Q472 1594 442 1565T412 1495Q412 1454 442 1425T514 1395Z"  />
<glyph unicode="&#xE6;" horiz-adv-x="1788" d="M1696 517H934Q934 347 1023 244T1261 140Q1436 140 1535 249L1615 97Q1537 28 1446 4T1224 -20Q1054 -20 926 75Q931 25 937 -20H776Q765 27 741 123Q627 -20 402 -20Q269 -20 175 67T80 281Q80 463 221 573T592 683Q648 683 724 661Q724 921 491 921Q313 921 217 825L137 984Q191 1028 286 1059T469 1091Q762 1091 858 918Q1006 1091 1226 1091Q1448 1091 1579 958T1711 613Q1711 567 1696 517ZM934 655H1532Q1532 778 1448 854T1225 931Q1102 931 1018 841T934 655ZM724 526Q664 546 597 546Q455 546 363 467T270 297Q270 130 468 130Q613 130 724 267V526Z"  />
<glyph unicode="&#xE7;" horiz-adv-x="1014" d="M943 984L849 850Q820 879 747 905T602 931Q447 931 356 823T265 525Q265 337 358 239T616 140Q744 140 874 239L949 79Q796 -20 570 -20Q351 -20 208 127T65 525Q65 781 213 936T620 1091Q703 1091 800 1056T943 984ZM407 -455L383 -356Q461 -356 513 -329T565 -254Q565 -180 475 -180V-61Q574 -61 629 -117T684 -254Q684 -348 611 -401T407 -455Z"  />
<glyph unicode="&#xE8;" horiz-adv-x="1117" d="M1037 517H265Q265 329 368 228Q459 140 602 140Q765 140 874 235L954 98Q910 54 819 22Q705 -20 565 -20Q363 -20 222 117Q65 268 65 523Q65 788 226 948Q370 1091 567 1091Q796 1091 926 962Q1052 838 1052 633Q1052 570 1037 517ZM576 931Q449 931 363 849Q281 771 270 655H863Q863 770 791 847Q712 931 576 931ZM587 1285L361 1618H558L727 1285H587Z"  />
<glyph unicode="&#xE9;" horiz-adv-x="1117" d="M1037 517H265Q265 329 368 228Q459 140 602 140Q765 140 874 235L954 98Q910 54 819 22Q705 -20 565 -20Q363 -20 222 117Q65 268 65 523Q65 788 226 948Q370 1091 567 1091Q796 1091 926 962Q1052 838 1052 633Q1052 570 1037 517ZM576 931Q449 931 363 849Q281 771 270 655H863Q863 770 791 847Q712 931 576 931ZM824 1618L598 1285H458L627 1618H824Z"  />
<glyph unicode="&#xEA;" horiz-adv-x="1117" d="M1037 517H265Q265 329 368 228Q459 140 602 140Q765 140 874 235L954 98Q910 54 819 22Q705 -20 565 -20Q363 -20 222 117Q65 268 65 523Q65 788 226 948Q370 1091 567 1091Q796 1091 926 962Q1052 838 1052 633Q1052 570 1037 517ZM576 931Q449 931 363 849Q281 771 270 655H863Q863 770 791 847Q712 931 576 931ZM729 1285L566 1474L388 1285H216L514 1623H621L926 1285H729Z"  />
<glyph unicode="&#xEB;" horiz-adv-x="1117" d="M1037 517H265Q265 329 368 228Q459 140 602 140Q765 140 874 235L954 98Q910 54 819 22Q705 -20 565 -20Q363 -20 222 117Q65 268 65 523Q65 788 226 948Q370 1091 567 1091Q796 1091 926 962Q1052 838 1052 633Q1052 570 1037 517ZM576 931Q449 931 363 849Q281 771 270 655H863Q863 770 791 847Q712 931 576 931ZM327 1513Q374 1513 406 1481T439 1401Q439 1354 407 1321T327 1288Q280 1288 247 1321T214 1401Q214 1448 247 1480T327 1513ZM799 1513Q846 1513 879 1481T912 1401Q912 1354 879 1321T799 1288Q752 1288 720 1321T687 1401Q687 1448 719 1480T799 1513Z"  />
<glyph unicode="&#xEC;" horiz-adv-x="584" d="M227 0V911H80V1071H420V0H227ZM289 1285L63 1618H260L429 1285H289Z"  />
<glyph unicode="&#xED;" horiz-adv-x="584" d="M227 0V911H80V1071H420V0H227ZM541 1618L315 1285H175L344 1618H541Z"  />
<glyph unicode="&#xEE;" horiz-adv-x="584" d="M227 0V911H80V1071H420V0H227ZM444 1285L281 1474L103 1285H-69L229 1623H336L641 1285H444Z"  />
<glyph unicode="&#xEF;" horiz-adv-x="584" d="M227 0V911H80V1071H420V0H227ZM54 1513Q101 1513 133 1481T166 1401Q166 1354 134 1321T54 1288Q7 1288 -26 1321T-59 1401Q-59 1448 -26 1480T54 1513ZM526 1513Q573 1513 606 1481T639 1401Q639 1354 606 1321T526 1288Q479 1288 447 1321T414 1401Q414 1448 446 1480T526 1513Z"  />
<glyph unicode="&#xF0;" horiz-adv-x="1125" d="M357 1252L516 1336Q425 1446 340 1510H591Q620 1480 671 1418L844 1510L890 1425L731 1339Q915 1056 972 883T1030 538Q1030 284 902 132T546 -20Q317 -20 189 132T61 538Q61 781 192 936T546 1091Q623 1091 692 1073Q628 1185 577 1256L403 1162L357 1252ZM251 538Q251 150 546 150Q687 150 763 256T840 538Q840 921 546 921Q405 921 328 816T251 538Z"  />
<glyph unicode="&#xF1;" horiz-adv-x="1119" d="M794 0V623Q794 794 743 862T570 931Q505 931 434 892T325 796V0H135V1071H265L325 933Q419 1091 632 1091Q984 1091 984 663V0H794ZM850 1492Q797 1285 658 1285Q595 1285 520 1323T413 1362Q342 1362 305 1285H214Q228 1369 278 1430T398 1492Q480 1492 549 1454T654 1415Q735 1415 762 1492H850Z"  />
<glyph unicode="&#xF2;" horiz-adv-x="1099" d="M65 538Q65 786 198 938T550 1091Q780 1091 907 945T1034 538Q1034 279 904 130T550 -20Q321 -20 193 131T65 538ZM265 538Q265 135 550 135Q683 135 758 243T834 538Q834 936 550 936Q420 936 343 830T265 538ZM565 1285L339 1618H536L705 1285H565Z"  />
<glyph unicode="&#xF3;" horiz-adv-x="1099" d="M65 538Q65 786 198 938T550 1091Q780 1091 907 945T1034 538Q1034 279 904 130T550 -20Q321 -20 193 131T65 538ZM265 538Q265 135 550 135Q683 135 758 243T834 538Q834 936 550 936Q420 936 343 830T265 538ZM774 1618L548 1285H408L577 1618H774Z"  />
<glyph unicode="&#xF4;" horiz-adv-x="1099" d="M65 538Q65 786 198 938T550 1091Q780 1091 907 945T1034 538Q1034 279 904 130T550 -20Q321 -20 193 131T65 538ZM265 538Q265 135 550 135Q683 135 758 243T834 538Q834 936 550 936Q420 936 343 830T265 538ZM709 1285L546 1474L368 1285H196L494 1623H601L906 1285H709Z"  />
<glyph unicode="&#xF5;" horiz-adv-x="1099" d="M65 538Q65 786 198 938T550 1091Q780 1091 907 945T1034 538Q1034 279 904 130T550 -20Q321 -20 193 131T65 538ZM265 538Q265 135 550 135Q683 135 758 243T834 538Q834 936 550 936Q420 936 343 830T265 538ZM880 1492Q827 1285 688 1285Q625 1285 550 1323T443 1362Q372 1362 335 1285H244Q258 1369 308 1430T428 1492Q510 1492 579 1454T684 1415Q765 1415 792 1492H880Z"  />
<glyph unicode="&#xF6;" horiz-adv-x="1099" d="M65 538Q65 786 198 938T550 1091Q780 1091 907 945T1034 538Q1034 279 904 130T550 -20Q321 -20 193 131T65 538ZM265 538Q265 135 550 135Q683 135 758 243T834 538Q834 936 550 936Q420 936 343 830T265 538ZM328 1513Q375 1513 407 1481T440 1401Q440 1354 408 1321T328 1288Q281 1288 248 1321T215 1401Q215 1448 248 1480T328 1513ZM800 1513Q847 1513 880 1481T913 1401Q913 1354 880 1321T800 1288Q753 1288 721 1321T688 1401Q688 1448 720 1480T800 1513Z"  />
<glyph unicode="&#xF7;" horiz-adv-x="1074" d="M694 1000Q694 938 650 894T544 849Q482 849 438 893T394 1000Q394 1062 438 1106T544 1150Q606 1150 650 1106T694 1000ZM960 705V564H122V705H960ZM694 250Q694 188 650 144T544 99Q482 99 438 143T394 250Q394 312 438 356T544 400Q606 400 650 356T694 250Z"  />
<glyph unicode="&#xF8;" horiz-adv-x="1117" d="M270 58L212 -20H61L180 142Q61 291 61 538Q61 786 194 938T546 1091Q711 1091 824 1015L880 1091H1030L913 932Q1030 786 1030 538Q1030 279 900 130T546 -20Q384 -20 270 58ZM295 297L719 872Q644 926 546 926Q412 926 332 823T251 538Q251 390 295 297ZM373 199Q442 135 546 135Q680 135 760 243T840 538Q840 684 797 775L373 199Z"  />
<glyph unicode="&#xF9;" horiz-adv-x="1119" d="M315 1071V388Q315 140 530 140Q624 140 702 194T805 319V1071H995V0H805V148Q773 85 677 33T488 -20Q312 -20 219 81T125 368V1071H315ZM548 1285L322 1618H519L688 1285H548Z"  />
<glyph unicode="&#xFA;" horiz-adv-x="1119" d="M315 1071V388Q315 140 530 140Q624 140 702 194T805 319V1071H995V0H805V148Q773 85 677 33T488 -20Q312 -20 219 81T125 368V1071H315ZM741 1618L515 1285H375L544 1618H741Z"  />
<glyph unicode="&#xFB;" horiz-adv-x="1119" d="M315 1071V388Q315 140 530 140Q624 140 702 194T805 319V1071H995V0H805V148Q773 85 677 33T488 -20Q312 -20 219 81T125 368V1071H315ZM680 1285L517 1474L339 1285H167L465 1623H572L877 1285H680Z"  />
<glyph unicode="&#xFC;" horiz-adv-x="1119" d="M315 1071V388Q315 140 530 140Q624 140 702 194T805 319V1071H995V0H805V148Q773 85 677 33T488 -20Q312 -20 219 81T125 368V1071H315ZM295 1513Q342 1513 374 1481T407 1401Q407 1354 375 1321T295 1288Q248 1288 215 1321T182 1401Q182 1448 215 1480T295 1513ZM767 1513Q814 1513 847 1481T880 1401Q880 1354 847 1321T767 1288Q720 1288 688 1321T655 1401Q655 1448 687 1480T767 1513Z"  />
<glyph unicode="&#xFD;" horiz-adv-x="1010" d="M544 -182Q507 -284 389 -352T124 -420V-250Q243 -250 328 -195T413 -59Q413 29 382 114T302 326L12 1071H206L521 243L804 1071H998L544 -182ZM755 1618L529 1285H389L558 1618H755Z"  />
<glyph unicode="&#xFE;" horiz-adv-x="1133" d="M325 59V-420H135V1510H325V983Q433 1091 586 1091Q814 1091 941 949T1068 533Q1068 289 940 135T570 -20Q404 -20 325 59ZM325 830V226Q414 150 514 150Q700 150 784 243T868 540Q868 740 785 830T515 921Q475 921 417 893T325 830Z"  />
<glyph unicode="&#xFF;" horiz-adv-x="1010" d="M544 -182Q507 -284 389 -352T124 -420V-250Q243 -250 328 -195T413 -59Q413 29 382 114T302 326L12 1071H206L521 243L804 1071H998L544 -182ZM265 1513Q312 1513 344 1481T377 1401Q377 1354 345 1321T265 1288Q218 1288 185 1321T152 1401Q152 1448 185 1480T265 1513ZM737 1513Q784 1513 817 1481T850 1401Q850 1354 817 1321T737 1288Q690 1288 658 1321T625 1401Q625 1448 657 1480T737 1513Z"  />
<glyph unicode="&#x131;" horiz-adv-x="584" d="M227 0V911H80V1071H420V0H227Z"  />
<glyph unicode="&#x152;" horiz-adv-x="2034" d="M1287 1285V878H1771V708H1287V180H1951V0H1087V138Q926 -25 657 -25Q380 -25 224 191T67 745Q67 1063 226 1277T657 1491Q927 1491 1087 1335V1465H1962V1285H1287ZM277 745Q277 493 376 324T657 155Q862 155 969 310T1077 745Q1077 1311 657 1311Q471 1311 374 1159T277 745Z"  />
<glyph unicode="&#x153;" horiz-adv-x="1893" d="M942 892Q1091 1091 1331 1091Q1553 1091 1684 958T1816 613Q1816 567 1801 517H1039Q1039 346 1128 243T1366 140Q1534 140 1640 241L1720 89Q1596 -20 1329 -20Q1075 -20 933 173Q804 -20 546 -20Q317 -20 189 131T61 538Q61 786 194 938T546 1091Q817 1091 942 892ZM1039 655H1637Q1637 778 1553 854T1330 931Q1226 931 1133 845T1039 655ZM261 538Q261 150 546 150Q684 150 757 254T830 538Q830 921 546 921Q412 921 337 821T261 538Z"  />
<glyph unicode="&#x160;" horiz-adv-x="985" d="M84 67L157 251Q213 210 296 183T446 155Q563 155 634 219T705 382Q705 456 666 519T467 658L349 713Q199 783 140 879T80 1110Q80 1274 196 1382T494 1490Q737 1490 832 1411L773 1237Q733 1266 651 1293T499 1320Q397 1320 339 1262T280 1113Q280 1057 301 1011T359 934T513 847L633 790Q783 719 843 621T904 370Q904 205 772 90T417 -25Q222 -25 84 67ZM860 1919L555 1585H448L150 1923H322L500 1731L663 1919H860Z"  />
<glyph unicode="&#x161;" horiz-adv-x="829" d="M65 64L132 244Q291 140 388 140Q564 140 564 288Q564 394 394 470Q263 530 218 561T139 631T89 715T72 811Q72 943 168 1017T419 1091Q536 1091 714 1017L660 841Q547 931 433 931Q365 931 319 899T272 818Q272 715 389 662L525 600Q650 543 707 470T764 287Q764 143 663 62T383 -20Q214 -20 65 64ZM763 1619L458 1285H351L53 1623H225L403 1431L566 1619H763Z"  />
<glyph unicode="&#x178;" horiz-adv-x="1168" d="M685 656V0H485V656L13 1465H219L584 825L949 1465H1155L685 656ZM354 1813Q401 1813 433 1781T466 1701Q466 1654 434 1621T354 1588Q307 1588 274 1621T241 1701Q241 1748 274 1780T354 1813ZM826 1813Q873 1813 906 1781T939 1701Q939 1654 906 1621T826 1588Q779 1588 747 1621T714 1701Q714 1748 746 1780T826 1813Z"  />
<glyph unicode="&#x17D;" horiz-adv-x="1127" d="M100 0V50L730 1285H110V1465H1005V1415L373 180H1027V0H100ZM898 1919L593 1585H486L188 1923H360L538 1731L701 1919H898Z"  />
<glyph unicode="&#x17E;" horiz-adv-x="972" d="M338 170H932V0H40V50L649 901H50V1071H926V1017L338 170ZM829 1619L524 1285H417L119 1623H291L469 1431L632 1619H829Z"  />
<glyph unicode="&#x192;" horiz-adv-x="795" d="M802 1332Q726 1360 684 1360Q485 1360 447 1072Q481 1070 517 1070Q601 1070 698 1080L685 964Q518 940 420 935L255 -73Q231 -217 130 -304T-122 -408Q-123 -409 -125 -403T-132 -383T-144 -349L-163 -292Q-176 -255 -176 -253Q-95 -237 -20 -185T65 -73L231 926Q187 926 80 913L110 1071L257 1072Q345 1510 696 1510Q749 1510 838 1480L802 1332Z"  />
<glyph unicode="&#x2C6;" horiz-adv-x="1074" d="M682 1285L519 1474L341 1285H169L467 1623H574L879 1285H682Z"  />
<glyph unicode="&#x2C7;" horiz-adv-x="1074" d="M879 1619L574 1285H467L169 1623H341L519 1431L682 1619H879Z"  />
<glyph unicode="&#x2DA;" horiz-adv-x="1074" d="M508 1704Q596 1704 657 1643T719 1495Q719 1408 657 1347T508 1285Q420 1285 358 1346T296 1495Q296 1582 358 1643T508 1704ZM508 1395Q550 1395 579 1424T609 1495Q609 1536 580 1565T508 1594Q466 1594 436 1565T406 1495Q406 1454 436 1425T508 1395Z"  />
<glyph unicode="&#x2DC;" horiz-adv-x="1074" d="M840 1492Q787 1285 648 1285Q585 1285 510 1323T403 1362Q332 1362 295 1285H204Q218 1369 268 1430T388 1492Q470 1492 539 1454T644 1415Q725 1415 752 1492H840Z"  />
<glyph unicode="&#x2010;" horiz-adv-x="752" d="M159 506V681H587V506H159Z"  />
<glyph unicode="&#x2013;" horiz-adv-x="752" d="M93 532V628H614V532H93Z"  />
<glyph unicode="&#x2014;" horiz-adv-x="1504" d="M93 532V628H1402V532H93Z"  />
<glyph unicode="&#x2018;" horiz-adv-x="752" d="M553 1421L478 1357Q423 1310 423 1242Q423 1201 472 1147T521 1048Q521 901 376 901Q221 901 221 1078Q221 1343 486 1510L553 1421Z"  />
<glyph unicode="&#x2019;" horiz-adv-x="752" d="M531 1333Q531 1068 266 901L199 990L274 1054Q329 1101 329 1169Q329 1210 280 1264T231 1363Q231 1510 376 1510Q531 1510 531 1333Z"  />
<glyph unicode="&#x201A;" horiz-adv-x="752" d="M531 100Q531 -165 266 -332L199 -243L274 -179Q329 -132 329 -64Q329 -23 280 31T231 130Q231 277 376 277Q531 277 531 100Z"  />
<glyph unicode="&#x201C;" horiz-adv-x="1074" d="M949 1421L874 1357Q819 1310 819 1242Q819 1201 868 1147T917 1048Q917 901 772 901Q617 901 617 1078Q617 1343 882 1510L949 1421ZM499 1421L424 1357Q369 1310 369 1242Q369 1201 418 1147T467 1048Q467 901 322 901Q167 901 167 1078Q167 1343 432 1510L499 1421Z"  />
<glyph unicode="&#x201D;" horiz-adv-x="1074" d="M955 1333Q955 1068 690 901L623 990L698 1054Q753 1101 753 1169Q753 1210 704 1264T655 1363Q655 1510 800 1510Q955 1510 955 1333ZM496 1333Q496 1068 231 901L164 990L239 1054Q294 1101 294 1169Q294 1210 245 1264T196 1363Q196 1510 341 1510Q496 1510 496 1333Z"  />
<glyph unicode="&#x201E;" horiz-adv-x="1074" d="M955 100Q955 -165 690 -332L623 -243L698 -179Q753 -132 753 -64Q753 -23 704 31T655 130Q655 277 800 277Q955 277 955 100ZM496 100Q496 -165 231 -332L164 -243L239 -179Q294 -132 294 -64Q294 -23 245 31T196 130Q196 277 341 277Q496 277 496 100Z"  />
<glyph unicode="&#x2020;" horiz-adv-x="940" d="M395 931H25V1071H395V1385H545V1071H915V931H545V-250L471 -338L395 -250V931Z"  />
<glyph unicode="&#x2021;" horiz-adv-x="940" d="M915 381V241H545V-250L469 -344L395 -250V241H25V381H395V931H25V1071H395V1385H545V1071H915V931H545V381H915Z"  />
<glyph unicode="&#x2022;" horiz-adv-x="1074" d="M542 863Q662 863 746 779T831 574Q831 454 747 370T542 285Q422 285 338 369T253 574Q253 694 337 778T542 863Z"  />
<glyph unicode="&#x2026;" horiz-adv-x="1504" d="M400 131Q400 69 356 25T250 -20Q188 -20 144 24T100 131Q100 193 144 237T250 281Q312 281 356 237T400 131ZM902 131Q902 69 858 25T752 -20Q690 -20 646 24T602 131Q602 193 646 237T752 281Q814 281 858 237T902 131ZM1404 131Q1404 69 1360 25T1254 -20Q1192 -20 1148 24T1104 131Q1104 193 1148 237T1254 281Q1316 281 1360 237T1404 131Z"  />
<glyph unicode="&#x2030;" horiz-adv-x="1869" d="M218 -20H91L974 1491H1100L218 -20ZM61 1162Q61 1309 142 1400T348 1491Q471 1491 544 1401T618 1143Q618 987 540 896T339 804Q61 804 61 1162ZM187 1152Q187 1035 226 971T330 906Q492 906 492 1151Q492 1389 345 1389Q272 1389 230 1325T187 1152ZM601 338Q601 485 682 576T888 667Q1011 667 1084 577T1158 319Q1158 163 1080 72T879 -20Q601 -20 601 338ZM727 328Q727 211 766 147T870 82Q1032 82 1032 327Q1032 565 885 565Q812 565 770 501T727 328ZM1251 338Q1251 485 1332 576T1538 667Q1661 667 1734 577T1808 319Q1808 163 1730 72T1529 -20Q1251 -20 1251 338ZM1377 328Q1377 211 1416 147T1520 82Q1682 82 1682 327Q1682 565 1535 565Q1462 565 1420 501T1377 328Z"  />
<glyph unicode="&#x2039;" horiz-adv-x="752" d="M171 535V599L526 843V718L314 561L526 423V298L171 535Z"  />
<glyph unicode="&#x203A;" horiz-adv-x="752" d="M566 535L211 298V423L423 561L211 718V843L566 599V535Z"  />
<glyph unicode="&#x20AC;" horiz-adv-x="1074" d="M805 928L747 787H333Q330 750 330 716Q330 688 332 656H679L630 515H347Q361 382 456 273Q559 155 687 155Q776 155 874 195T1031 298V81Q891 -25 666 -25Q450 -25 307 142Q183 287 147 515H31V656H129Q124 724 128 787H31V928H146Q183 1161 321 1317Q475 1490 699 1490Q949 1490 1052 1397L963 1233Q862 1310 704 1310Q552 1310 454 1192Q370 1089 346 928H805Z"  />
<glyph unicode="&#x2122;" horiz-adv-x="1300" d="M499 1381V738H399V1381H191V1471H718V1381H499ZM1254 739L1171 1237L1024 734H965L810 1244L733 739H638L750 1471H825L994 904L1161 1471H1236L1349 739H1254Z"  />
<glyph unicode="&#x2219;" horiz-adv-x="752" d="M355 801Q417 801 461 757T505 651Q505 589 461 545T355 500Q293 500 249 544T205 651Q205 713 249 757T355 801Z"  />

<hkern u1="A" u2="T" k="199" />
<hkern u1="A" u2="V" k="180" />
<hkern u1="A" u2="W" k="180" />
<hkern u1="A" u2="Y" k="218" />
<hkern u1="A" u2="v" k="113" />
<hkern u1="A" u2="w" k="94" />
<hkern u1="A" u2="y" k="84" />
<hkern u1="A" u2="&#x2019;" k="228" />
<hkern u1="A" u2=" " k="113" />
<hkern u1="F" u2="&#x2c;" k="369" />
<hkern u1="F" u2="." k="369" />
<hkern u1="F" u2="A" k="217" />
<hkern u1="K" u2="e" k="64" />
<hkern u1="K" u2="i" k="64" />
<hkern u1="K" u2="n" k="64" />
<hkern u1="K" u2="o" k="64" />
<hkern u1="K" u2="u" k="64" />
<hkern u1="K" u2="w" k="64" />
<hkern u1="L" u2="T" k="209" />
<hkern u1="L" u2="V" k="284" />
<hkern u1="L" u2="W" k="256" />
<hkern u1="L" u2="Y" k="265" />
<hkern u1="L" u2="y" k="170" />
<hkern u1="L" u2="&#x2019;" k="207" />
<hkern u1="L" u2=" " k="76" />
<hkern u1="P" u2="&#x2c;" k="400" />
<hkern u1="P" u2="." k="400" />
<hkern u1="P" u2="A" k="228" />
<hkern u1="P" u2="a" k="96" />
<hkern u1="P" u2="e" k="96" />
<hkern u1="P" u2="h" k="96" />
<hkern u1="P" u2="i" k="96" />
<hkern u1="P" u2="o" k="96" />
<hkern u1="P" u2="r" k="96" />
<hkern u1="P" u2=" " k="37" />
<hkern u1="R" u2="T" k="84" />
<hkern u1="R" u2="V" k="94" />
<hkern u1="R" u2="W" k="131" />
<hkern u1="R" u2="Y" k="131" />
<hkern u1="R" u2="e" k="83" />
<hkern u1="R" u2="o" k="83" />
<hkern u1="R" u2="u" k="59" />
<hkern u1="T" u2="&#x2c;" k="340" />
<hkern u1="T" u2="-,&#x2010;" k="198" />
<hkern u1="T" u2="." k="340" />
<hkern u1="T" u2=":" k="227" />
<hkern u1="T" u2=";" k="227" />
<hkern u1="T" u2="A" k="199" />
<hkern u1="T" u2="O" k="113" />
<hkern u1="T" u2="a" k="255" />
<hkern u1="T" u2="c" k="255" />
<hkern u1="T" u2="e" k="255" />
<hkern u1="T" u2="i" k="85" />
<hkern u1="T" u2="o" k="255" />
<hkern u1="T" u2="r" k="225" />
<hkern u1="T" u2="s" k="246" />
<hkern u1="T" u2="u" k="265" />
<hkern u1="T" u2="w" k="283" />
<hkern u1="T" u2="y" k="236" />
<hkern u1="T" u2=" " k="37" />
<hkern u1="V" u2="&#x2c;" k="300" />
<hkern u1="V" u2="-,&#x2010;" k="151" />
<hkern u1="V" u2="." k="300" />
<hkern u1="V" u2=":" k="123" />
<hkern u1="V" u2=";" k="123" />
<hkern u1="V" u2="A" k="209" />
<hkern u1="V" u2="a" k="161" />
<hkern u1="V" u2="e" k="132" />
<hkern u1="V" u2="i" k="37" />
<hkern u1="V" u2="o" k="132" />
<hkern u1="V" u2="r" k="123" />
<hkern u1="V" u2="u" k="133" />
<hkern u1="V" u2="y" k="76" />
<hkern u1="W" u2="&#x2c;" k="189" />
<hkern u1="W" u2="-,&#x2010;" k="141" />
<hkern u1="W" u2="." k="189" />
<hkern u1="W" u2=":" k="37" />
<hkern u1="W" u2=";" k="37" />
<hkern u1="W" u2="A" k="180" />
<hkern u1="W" u2="a" k="114" />
<hkern u1="W" u2="e" k="94" />
<hkern u1="W" u2="i" k="28" />
<hkern u1="W" u2="o" k="94" />
<hkern u1="W" u2="r" k="103" />
<hkern u1="W" u2="u" k="84" />
<hkern u1="W" u2="y" k="37" />
<hkern u1="Y" u2="&#x2c;" k="330" />
<hkern u1="Y" u2="-,&#x2010;" k="250" />
<hkern u1="Y" u2="." k="330" />
<hkern u1="Y" u2=":" k="179" />
<hkern u1="Y" u2=";" k="179" />
<hkern u1="Y" u2="A" k="218" />
<hkern u1="Y" u2="a" k="190" />
<hkern u1="Y" u2="e" k="215" />
<hkern u1="Y" u2="i" k="114" />
<hkern u1="Y" u2="o" k="235" />
<hkern u1="Y" u2="p" k="190" />
<hkern u1="Y" u2="q" k="245" />
<hkern u1="Y" u2="u" k="151" />
<hkern u1="Y" u2="v" k="122" />
<hkern u1="Y" u2=" " k="37" />
<hkern u1="f" u2="&#x2019;" k="48" />
<hkern u1="r" u2="&#x2c;" k="292" />
<hkern u1="r" u2="." k="273" />
<hkern u1="r" u2="&#x2019;" k="28" />
<hkern u1="v" u2="&#x2c;" k="275" />
<hkern u1="v" u2="." k="275" />
<hkern u1="w" u2="&#x2c;" k="217" />
<hkern u1="w" u2="." k="217" />
<hkern u1="y" u2="&#x2c;" k="250" />
<hkern u1="y" u2="." k="250" />
<hkern u1="&#x2018;" u2="&#x2018;" k="197" />
<hkern u1="&#x2019;" u2="s" k="141" />
<hkern u1="&#x2019;" u2="&#x2019;" k="197" />
<hkern u1="&#x2019;" u2=" " k="76" />
<hkern u1=" " u2="A" k="113" />
<hkern u1=" " u2="T" k="37" />
<hkern u1=" " u2="Y" k="37" />

</font>
</defs>
<text x="40" y="40" font-family="Trebuchet W01 Regular" font-size="30" fill="#933" >ABCDEFGHIJKLMNOPQRSTUVWXYZ abcdefghijklmnopqrstuvwxyz AÁÀÂÄÅÃÆ CÇ DÐ EÉÈÊË I Í Ì Î Ï NÑ</text>
<text x="40" y="80" font-family="Trebuchet W01 Regular" font-size="30" fill="#933" >OÓÒÔÖÕØŒ SŠ UÚÙÛÜ YÝŸ ZŽ Þ aáàâäåãæ cç dð eéèêë i ı í ì î ï nñ oóòôöõøœ sšß uúùûü yýÿ zž</text>
<text x="40" y="120" font-family="Trebuchet W01 Regular" font-size="30" fill="#933" >þ 1234567890 ½ ¼ ¾ % ‰ $¢£¥ƒ€¤ † ‡ § ¶ # ^~µ +×± &lt; = &gt; ÷¬ !¡?¿ &quot; &amp; &apos; * ° . , : ; () [ \ ] {} / |</text>
<text x="40" y="160" font-family="Trebuchet W01 Regular" font-size="30" fill="#933" >¦ _ ‚ „ … ‹› «» ‘ ’ “ ” • ­ - – — @ © ® ™ ªº ¹²³ ´ ` ˆ ˜ ¨ ¯ · ¸</text>
</svg>
